…
``` r
# Install the development version from GitHub:
# install.packages("pak")
pak::pak("mikejohnpage/findwb")
```

## Usage

``` r
library(findwb)

# Load a dataset, for example, population totals:
wb_pop_total
#> # A tibble: 2,128 × 4
#>    country                     country_code  year pop_total
#>    <chr>                       <chr>        <int>     <dbl>
#>  1 Africa Eastern and Southern AFE           2022 720839314
#>  2 Africa Eastern and Southern AFE           2021 702977106
#>  3 Africa Eastern and Southern AFE           2020 685112979
#>  4 Africa Eastern and Southern AFE           2019 667242986
#>  5 Africa Eastern and Southern AFE           2018 649757148
#>  6 Africa Eastern and Southern AFE           2017 632746570
#>  7 Africa Eastern and Southern AFE           2016 616377605
#>  8 Africa Eastern and Southern AFE           2015 600008424
#>  9 Africa Western and Central  AFW           2022 490330870
#> 10 Africa Western and Central  AFW           2021 478185907
#> # ℹ 2,118 more rows
```
…
